{
  "success": true,
  "totalCount": 23,
  "pageCount": 2,
  "currentPage": 1,
  "data": {
    "values": [
      {
        "columns": [
          {
            "name": "representantlegal",
            "value": "Oui"
          },
          {
            "name": "representantlegalfonction",
            "value": "PDG"
          },
          {
            "name": "representantlegalprenom",
            "value": "NOPSEITE"
          },
          {
            "name": "principalinterlocuteuremail",
            "value": "cm@hotml.fr"
          },
          {
            "name": "daterevisionkyc",
            "value": "2024-01-25 00:00:00"
          },
          {
            "name": "libellegrouperisque",
            "value": "Groupe risque TUOXO "
          },
          {
            "name": "raisonsociale",
            "value": "S.A. PEOSYS"
          },
          {
            "name": "typeclient",
            "value": "C"
          },
          {
            "name": "fonctionagentgestionnaireportefeuille",
            "value": "Chargé d'affaires Assistant"
          },
          {
            "name": "nombresalarie",
            "value": "1000"
          },
          {
            "name": "representantlegalnom",
            "value": "PIEHAAD"
          },
          {
            "name": "codemarche",
            "value": "4"
          },
          {
            "name": "derniercri",
            "value": "2022-03-25 00:00:00"
          },
          {
            "name": "principalinterlocuteurfonction",
            "value": "Comptable"
          },
          {
            "name": "prenomagentgestionnaireportefeuille",
            "value": "VERONIQUE"
          },
          {
            "name": "version",
            "value": "1.0"
          },
          {
            "name": "tophorschamp",
            "value": "Non"
          },
          {
            "name": "principalinterlocuteurtelephone",
            "value": "606060606"
          },
          {
            "name": "strategierelationnelle",
            "value": "Risqué"
          },
          {
            "name": "datenotationrisque",
            "value": "2022-01-01 00:00:00"
          },
          {
            "name": "commune",
            "value": "RILLIEUX LA PAPE"
          },
          {
            "name": "datemajstrategiecommercial",
            "value": "2022-02-02"
          },
          {
            "name": "groupecommercial",
            "value": "Groupe PEOSYS"
          },
          {
            "name": "agencegestionaire",
            "value": "Oyonnax Entreprises"
          },
          {
            "name": "extractsperpartname",
            "value": "\n\n4\n\n$\n\nOyonnax Entreprises\n\n$\n\n1944\n\n$\n\nRODIER\n\n$\n\nS.A. PEOSYS\n\n$\n\nC\n\n$\n\nGroupe risque TUOXO\n\n$\n\nGroupe PEOSYS\n\n$\n\nNon\n\n$\n\nNon\n\n$\n\nNon\n\n$\n\n-\n\n$\n\nRisqué\n\n$\n\nOui\n\n$\n\nPIEHAAD\n\n$\n\nNOPSEITE\n\n$\n\nC5-\n\n$\n\n01/01/2022\n\n$\n\nC5-\n\n$\n\n01/01/2022\n\n$\n\n4751Z - COM.DETA.TEXTILES\n\n$\n\n2223Z - FA.ELT/MAT.PLST/CSTR\n\n$\n\n71 968 K€\n\n$\n\n01/12/2009\n\n$\n\n300379450\n\n$\n\n69140\n\n$\n\nRILLIEUX LA PAPE\n\n$\n\nFrance\n\n$\n\nCARON\n\n$\n\nManu\n\n$\n\n791\n\n$ "
          },
          {
            "name": "ancienclient",
            "value": "Non"
          },
          {
            "name": "notationrisque",
            "value": "C5-"
          },
          {
            "name": "motifhorschamp",
            "value": "-"
          },
          {
            "name": "fileext",
            "value": "csv"
          },
          {
            "name": "representantlegalclientprospect",
            "value": "C"
          },
          {
            "name": "formejuridique",
            "value": "SA"
          },
          {
            "name": "marcheintitule",
            "value": "Entreprises"
          },
          {
            "name": "leadergroupecommercial",
            "value": "Non"
          },
          {
            "name": "siren",
            "value": "300379450"
          },
          {
            "name": "datequotationbdf",
            "value": "2022-01-01 00:00:00"
          },
          {
            "name": "quotationbdf",
            "value": "C5-"
          },
          {
            "name": "pays",
            "value": "France"
          },
          {
            "name": "principalinterlocuteurprenom",
            "value": "Manu"
          },
          {
            "name": "eds",
            "value": "791"
          },
          {
            "name": "adressesiegesociale",
            "value": "Rue du Pape"
          },
          {
            "name": "integremasse",
            "value": "Non"
          },
          {
            "name": "codepostal",
            "value": "69140"
          },
          {
            "name": "principalinterlocuteur",
            "value": "Oui"
          },
          {
            "name": "nafinterne",
            "value": " 4751Z - COM.DETA.TEXTILES"
          },
          {
            "name": "principalinterlocuteurnom",
            "value": "CARON"
          },
          {
            "name": "datebilan",
            "value": "2009-12-01"
          },
          {
            "name": "chiffreaffaire",
            "value": "71"
          },
          {
            "name": "numeroportefeuille",
            "value": "1944"
          },
          {
            "name": "naf2",
            "value": "2223Z - FA.ELT/MAT.PLST/CSTR"
          },
          {
            "name": "nomagentgestionnaireportefeuille",
            "value": "RODIER"
          }
        ]
      },
      {
        "columns": [
          {
            "name": "representantlegal",
            "value": "Oui"
          },
          {
            "name": "representantlegalfonction",
            "value": "PDG"
          },
          {
            "name": "representantlegalprenom",
            "value": "NOPSEITE"
          },
          {
            "name": "principalinterlocuteuremail",
            "value": "ode@PME.dom"
          },
          {
            "name": "daterevisionkyc",
            "value": "2024-01-25 00:00:00"
          },
          {
            "name": "libellegrouperisque",
            "value": "GROUPE PME"
          },
          {
            "name": "raisonsociale",
            "value": "S.A. PME FOUR"
          },
          {
            "name": "typeclient",
            "value": "C"
          },
          {
            "name": "fonctionagentgestionnaireportefeuille",
            "value": "Chargé d'affaires Assistant"
          },
          {
            "name": "nombresalarie",
            "value": "1000"
          },
          {
            "name": "representantlegalnom",
            "value": "PIEHAAD"
          },
          {
            "name": "codemarche",
            "value": "4"
          },
          {
            "name": "derniercri",
            "value": "2022-03-25 00:00:00"
          },
          {
            "name": "principalinterlocuteurfonction",
            "value": "Comptable"
          },
          {
            "name": "prenomagentgestionnaireportefeuille",
            "value": "VERONIQUE"
          },
          {
            "name": "version",
            "value": "1.0"
          },
          {
            "name": "tophorschamp",
            "value": "Non"
          },
          {
            "name": "principalinterlocuteurtelephone",
            "value": "7777777777"
          },
          {
            "name": "strategierelationnelle",
            "value": "Inconnue"
          },
          {
            "name": "datenotationrisque",
            "value": "2022-01-01 00:00:00"
          },
          {
            "name": "commune",
            "value": "RILLIEUX LA PAPE"
          },
          {
            "name": "datemajstrategiecommercial",
            "value": "2022-02-02"
          },
          {
            "name": "groupecommercial",
            "value": "GROUPE PME"
          },
          {
            "name": "agencegestionaire",
            "value": "Oyonnax Entreprises"
          },

          {
            "name": "extractsperpartname",
            "value": "\n\n4\n\n$\n\nOyonnax Entreprises\n\n$\n\n1944\n\n$\n\nRODIER\n\n$\n\nS.A. PME FOUR\n\n$\n\nC\n\n$\n\nGROUPE PME\n\n$\n\nGROUPE PME\n\n$\n\nNon\n\n$\n\nNon\n\n$\n\nNon\n\n$\n\n-\n\n$\n\nInconnue\n\n$\n\nOui\n\n$\n\nPIEHAAD\n\n$\n\nNOPSEITE\n\n$\n\nC5-\n\n$\n\n01/01/2022\n\n$\n\nC5-\n\n$\n\n01/01/2022\n\n$\n\n4751Z - COM.DETA.TEXTILES\n\n$\n\n2223Z - FA.ELT/MAT.PLST/CSTR\n\n$\n\n71 968 K€\n\n$\n\n01/12/2009\n\n$\n\n300379450\n\n$\n\n69140\n\n$\n\nRILLIEUX LA PAPE\n\n$\n\nFrance\n\n$\n\nODE\n\n$\n\nOdette\n\n$\n\n791\n\n$ "
          },

          { "name": "ancienclient", "value": "Non" },
          { "name": "notationrisque", "value": "C5-" },
          { "name": "motifhorschamp", "value": "-" },
          { "name": "fileext", "value": "csv" },
          { "name": "representantlegalclientprospect", "value": "C" },
          { "name": "formejuridique", "value": "SA" },
          { "name": "marcheintitule", "value": "Entreprises" },
          { "name": "leadergroupecommercial", "value": "Non" },
          { "name": "siren", "value": "300379450" },
          { "name": "datequotationbdf", "value": "2022-01-01 00:00:00" },
          { "name": "quotationbdf", "value": "C5-" },
          { "name": "pays", "value": "France" },
          { "name": "principalinterlocuteurprenom", "value": "Odette" },
          { "name": "eds", "value": "791" },
          { "name": "adressesiegesociale", "value": "Rue du Pape" },
          { "name": "integremasse", "value": "Non" },
          { "name": "codepostal", "value": "69140" },
          { "name": "principalinterlocuteur", "value": "Oui" },
          { "name": "nafinterne", "value": " 4751Z - COM.DETA.TEXTILES" },
          { "name": "principalinterlocuteurnom", "value": "ODE" },
          { "name": "datebilan", "value": "2009-12-01" },
          { "name": "chiffreaffaire", "value": "71" },
          { "name": "numeroportefeuille", "value": "1944" },
          { "name": "naf2", "value": "2223Z - FA.ELT/MAT.PLST/CSTR" },
          { "name": "nomagentgestionnaireportefeuille", "value": "RODIER" }
        ]
      }
    ]
  }
}
